other_tests/iverilog_test/build/wave.vcd
$version Generated by VerilatedVcd $end
$timescale 1ps $end
 $scope module TOP $end
  $var wire 1 6 clk $end
  $var wire 1 7 rst $end
  $var wire 1 8 wr_en $end
  $var wire 1 9 rd_en $end
  $var wire 8 : data_in [7:0] $end
  $var wire 8 ; data_out [7:0] $end
  $var wire 1 < full $end
  $var wire 1 = empty $end
  $scope module top $end
   $var wire 1 6 clk $end
   $var wire 1 7 rst $end
   $var wire 1 8 wr_en $end
   $var wire 1 9 rd_en $end
   $var wire 8 : data_in [7:0] $end
   $var wire 8 ; data_out [7:0] $end
   $var wire 1 < full $end
   $var wire 1 = empty $end
   $scope module m_fifo_buffer $end
    $var wire 32 > DEPTH [31:0] $end
    $var wire 32 ? WIDTH [31:0] $end
    $var wire 1 6 clk $end
    $var wire 1 7 rst $end
    $var wire 1 8 wr_en $end
    $var wire 1 9 rd_en $end
    $var wire 8 : data_in [7:0] $end
    $var wire 8 ; data_out [7:0] $end
    $var wire 1 < full $end
    $var wire 1 = empty $end
    $var wire 8 # memory[0] [7:0] $end
    $var wire 8 $ memory[1] [7:0] $end
    $var wire 8 % memory[2] [7:0] $end
    $var wire 8 & memory[3] [7:0] $end
    $var wire 8 ' memory[4] [7:0] $end
    $var wire 8 ( memory[5] [7:0] $end
    $var wire 8 ) memory[6] [7:0] $end
    $var wire 8 * memory[7] [7:0] $end
    $var wire 8 + memory[8] [7:0] $end
    $var wire 8 , memory[9] [7:0] $end
    $var wire 8 - memory[10] [7:0] $end
    $var wire 8 . memory[11] [7:0] $end
    $var wire 8 / memory[12] [7:0] $end
    $var wire 8 0 memory[13] [7:0] $end
    $var wire 8 1 memory[14] [7:0] $end
    $var wire 8 2 memory[15] [7:0] $end
    $var wire 4 3 write_pointer [3:0] $end
    $var wire 4 4 read_pointer [3:0] $end
    $var wire 6 5 count [5:0] $end
   $upscope $end
  $upscope $end
 $upscope $end
$enddefinitions $end


#0
b00000000 #
b00000000 $
b00000000 %
b00000000 &
b00000000 '
b00000000 (
b00000000 )
b00000000 *
b00000000 +
b00000000 ,
b00000000 -
b00000000 .
b00000000 /
b00000000 0
b00000000 1
b00000000 2
b0000 3
b0000 4
b000000 5
06
17
08
09
b00000000 :
b00000000 ;
0<
1=
b00000000000000000000000000010000 >
b00000000000000000000000000001000 ?
#1
16
#2
06
#3
16
#4
06
#5
16
#6
06
#7
16
#8
06
#9
16
18
b00001010 :
#10
06
07
b00010100 :
#11
16
19
b00011110 :
b00011110 ;
#12
06
b00101000 :
#13
16
b00111100 :
b00111100 ;
#14
06
09
b01000110 :
#15
b01010000 #
b0001 3
b000001 5
16
b01010000 :
0=
#16
06
b01011010 :
#17
b01100100 $
b0010 3
16
19
b01100100 :
#18
06
08
#19
b0001 4
b000000 5
16
b01010000 ;
1=
#20
06
#21
16
#22
06
#23
16
#24
06
18
09
b00001010 :
#25
b00010100 %
b0011 3
b000001 5
16
b00010100 :
0=
#26
06
19
b00011110 :
#27
b00101000 &
b0100 3
16
b00101000 :
#28
06
b00111100 :
#29
b01000110 '
b0101 3
b000010 5
16
09
b01000110 :
#30
06
b01010000 :
#31
b01011010 (
b0110 3
b000011 5
16
b01011010 :
#32
06
19
b01100100 :
#33
b0010 4
b000010 5
16
08
b01100100 ;
#34
06
#35
b0011 4
b000001 5
16
b00010100 ;
#36
06
#37
b0100 4
b000000 5
16
b00101000 ;
1=
#38
06
#39
b00001010 )
b0111 3
b000001 5
16
18
09
b00001010 :
0=
#40
06
b00010100 :
#41
b00011110 *
b1000 3
16
19
b00011110 :
#42
06
b00101000 :
#43
b00111100 +
b1001 3
16
b00111100 :
#44
06
09
b01000110 :
#45
b01010000 ,
b1010 3
b000010 5
16
b01010000 :
#46
06
b01011010 :
#47
b01100100 -
b1011 3
16
19
b01100100 :
#48
06
08
#49
b0101 4
b000001 5
16
b01000110 ;
#50
06
#51
b0110 4
b000000 5
16
b01011010 ;
1=
#52
06
#53
16
#54
06
18
09
b00001010 :
#55
b00010100 .
b1100 3
b000001 5
16
b00010100 :
0=
#56
06
19
b00011110 :
#57
b00101000 /
b1101 3
16
b00101000 :
#58
06
b00111100 :
#59
b01000110 0
b1110 3
b000010 5
16
09
b01000110 :
#60
06
b01010000 :
#61
b01011010 1
b1111 3
b000011 5
16
b01011010 :
#62
06
19
b01100100 :
#63
b0111 4
b000010 5
16
08
b00001010 ;
#64
06
#65
b1000 4
b000001 5
16
b00011110 ;
#66
06
#67
b1001 4
b000000 5
16
b00111100 ;
1=
#68
06
#69
b00001010 2
b0000 3
b000001 5
16
18
09
b00001010 :
0=
#70
06
b00010100 :
#71
b00011110 #
b0001 3
16
19
b00011110 :
#72
06
b00101000 :
#73
b00111100 $
b0010 3
16
b00111100 :
#74
06
09
b01000110 :
#75
b01010000 %
b0011 3
b000010 5
16
b01010000 :
#76
06
b01011010 :
#77
b01100100 &
b0100 3
16
19
b01100100 :
#78
06
08
#79
b1010 4
b000001 5
16
b01010000 ;
#80
06
#81
b1011 4
b000000 5
16
b01100100 ;
1=
#82
06
#83
16
#84
06
18
09
b00001010 :
#85
b00010100 '
b0101 3
b000001 5
16
b00010100 :
0=
#86
06
19
b00011110 :
#87
b00101000 (
b0110 3
16
b00101000 :
#88
06
b00111100 :
#89
b01000110 )
b0111 3
b000010 5
16
09
b01000110 :
#90
06
b01010000 :
#91
b01011010 *
b1000 3
b000011 5
16
b01011010 :
#92
06
19
b01100100 :
#93
b1100 4
b000010 5
16
08
b00010100 ;
#94
06
#95
b1101 4
b000001 5
16
b00101000 ;
#96
06
#97
b1110 4
b000000 5
16
b01000110 ;
1=
#98
06
#99
b00001010 +
b1001 3
b000001 5
16
18
09
b00001010 :
0=
#100
06
b00010100 :
#101
b00011110 ,
b1010 3
16
19
b00011110 :
#102
06
b00101000 :
#103
b00111100 -
b1011 3
16
b00111100 :
#104
06
09
b01000110 :
#105
b01010000 .
b1100 3
b000010 5
16
b01010000 :
#106
06
b01011010 :
#107
b01100100 /
b1101 3
16
19
b01100100 :
#108
06
08
#109
b1111 4
b000001 5
16
b01011010 ;
#110
06
#111
b0000 4
b000000 5
16
b00001010 ;
1=
#112
06
#113
16
#114
06
18
09
b00001010 :
#115
b00010100 0
b1110 3
b000001 5
16
b00010100 :
0=
#116
06
19
b00011110 :
#117
b00101000 1
b1111 3
16
b00101000 :
#118
06
b00111100 :
#119
b01000110 2
b0000 3
b000010 5
16
09
b01000110 :
#120
06
b01010000 :
#121
b01011010 #
b0001 3
b000011 5
16
b01011010 :
#122
06
19
b01100100 :
#123
b0001 4
b000010 5
16
08
b01011010 ;
#124
06
#125
b0010 4
b000001 5
16
b00111100 ;
#126
06
#127
b0011 4
b000000 5
16
b01010000 ;
1=
#128
06
#129
b00001010 $
b0010 3
b000001 5
16
18
09
b00001010 :
0=
#130
06
b00010100 :
#131
b00011110 %
b0011 3
16
19
b00011110 :
#132
06
b00101000 :
#133
b00111100 &
b0100 3
16
b00111100 :
#134
06
09
b01000110 :
#135
b01010000 '
b0101 3
b000010 5
16
b01010000 :
#136
06
b01011010 :
#137
b01100100 (
b0110 3
16
19
b01100100 :
#138
06
08
#139
b0100 4
b000001 5
16
b00111100 ;
#140
06
#141
b0101 4
b000000 5
16
b01010000 ;
1=
#142
06
#143
16
#144
06
18
09
b00001010 :
#145
b00010100 )
b0111 3
b000001 5
16
b00010100 :
0=
#146
06
19
b00011110 :
#147
b00101000 *
b1000 3
16
b00101000 :
#148
06
b00111100 :
#149
b01000110 +
b1001 3
b000010 5
16
09
b01000110 :
#150
06
b01010000 :
#151
b01011010 ,
b1010 3
b000011 5
16
b01011010 :
#152
06
19
b01100100 :
#153
b0110 4
b000010 5
16
08
b01100100 ;
#154
06
#155
b0111 4
b000001 5
16
b00010100 ;
#156
06
#157
b1000 4
b000000 5
16
b00101000 ;
1=
#158
06
#159
b00001010 -
b1011 3
b000001 5
16
18
09
b00001010 :
0=
#160
06
b00010100 :
#161
b00011110 .
b1100 3
16
19
b00011110 :
#162
06
b00101000 :
#163
b00111100 /
b1101 3
16
b00111100 :
#164
06
09
b01000110 :
#165
b01010000 0
b1110 3
b000010 5
16
b01010000 :
#166
06
b01011010 :
#167
b01100100 1
b1111 3
16
19
b01100100 :
#168
06
08
#169
b1001 4
b000001 5
16
b01000110 ;
#170
06
#171
b1010 4
b000000 5
16
b01011010 ;
1=
#172
06
#173
16
#174
06
18
09
b00001010 :
#175
b00010100 2
b0000 3
b000001 5
16
b00010100 :
0=
#176
06
19
b00011110 :
#177
b00101000 #
b0001 3
16
b00101000 :
#178
06
b00111100 :
#179
b01000110 $
b0010 3
b000010 5
16
09
b01000110 :
#180
06
b01010000 :
#181
b01011010 %
b0011 3
b000011 5
16
b01011010 :
#182
06
19
b01100100 :
#183
b1011 4
b000010 5
16
08
b00001010 ;
#184
06
#185
b1100 4
b000001 5
16
b00011110 ;
#186
06
#187
b1101 4
b000000 5
16
b00111100 ;
1=
#188
06
#189
b00001010 &
b0100 3
b000001 5
16
18
09
b00001010 :
0=
#190
06
b00010100 :
#191
b00011110 '
b0101 3
16
19
b00011110 :
#192
06
b00101000 :
#193
b00111100 (
b0110 3
16
b00111100 :
#194
06
09
b01000110 :
#195
b01010000 )
b0111 3
b000010 5
16
b01010000 :
#196
06
b01011010 :
#197
b01100100 *
b1000 3
16
19
b01100100 :
#198
06
08
#199
b1110 4
b000001 5
16
b01010000 ;
#200
06
#201
b1111 4
b000000 5
16
b01100100 ;
1=
#202
06
#203
16
#204
06
18
09
b00001010 :
#205
b00010100 +
b1001 3
b000001 5
16
b00010100 :
0=
#206
06
19
b00011110 :
#207
b00101000 ,
b1010 3
16
b00101000 :
#208
06
b00111100 :
#209
b01000110 -
b1011 3
b000010 5
16
09
b01000110 :
#210
06
b01010000 :
#211
b01011010 .
b1100 3
b000011 5
16
b01011010 :
#212
06
19
b01100100 :
#213
b0000 4
b000010 5
16
08
b00010100 ;
#214
06
#215
b0001 4
b000001 5
16
b00101000 ;
#216
06
#217
b0010 4
b000000 5
16
b01000110 ;
1=
#218
06
#219
b00001010 /
b1101 3
b000001 5
16
18
09
b00001010 :
0=
#220
06
b00010100 :
#221
b00011110 0
b1110 3
16
19
b00011110 :
#222
06
b00101000 :
#223
b00111100 1
b1111 3
16
b00111100 :
#224
06
09
b01000110 :
#225
b01010000 2
b0000 3
b000010 5
16
b01010000 :
#226
06
b01011010 :
#227
b01100100 #
b0001 3
16
19
b01100100 :
#228
06
08
#229
b0011 4
b000001 5
16
b01011010 ;
#230
06
#231
b0100 4
b000000 5
16
b00001010 ;
1=
#232
06
#233
16
#234
06
18
09
b00001010 :
#235
b00010100 $
b0010 3
b000001 5
16
b00010100 :
0=
#236
06
19
b00011110 :
#237
b00101000 %
b0011 3
16
b00101000 :
#238
06
b00111100 :
#239
b01000110 &
b0100 3
b000010 5
16
09
b01000110 :
#240
06
b01010000 :
#241
b01011010 '
b0101 3
b000011 5
16
b01011010 :
#242
06
19
b01100100 :
#243
b0101 4
b000010 5
16
08
b01011010 ;
#244
06
#245
b0110 4
b000001 5
16
b00111100 ;
#246
06
#247
b0111 4
b000000 5
16
b01010000 ;
1=
#248
06
#249
b00001010 (
b0110 3
b000001 5
16
18
09
b00001010 :
0=
#250
06
b00010100 :
#251
b00011110 )
b0111 3
16
19
b00011110 :
#252
06
b00101000 :
#253
b00111100 *
b1000 3
16
b00111100 :
#254
06
09
b01000110 :
#255
b01010000 +
b1001 3
b000010 5
16
b01010000 :
#256
06
b01011010 :
#257
b01100100 ,
b1010 3
16
19
b01100100 :
#258
06
08
#259
b1000 4
b000001 5
16
b00111100 ;
#260
06
#261
b1001 4
b000000 5
16
b01010000 ;
1=
#262
06
#263
16
#264
06
18
09
b00001010 :
#265
b00010100 -
b1011 3
b000001 5
16
b00010100 :
0=
#266
06
19
b00011110 :
#267
b00101000 .
b1100 3
16
b00101000 :
#268
06
b00111100 :
#269
b01000110 /
b1101 3
b000010 5
16
09
b01000110 :
#270
06
b01010000 :
#271
b01011010 0
b1110 3
b000011 5
16
b01011010 :
#272
06
19
b01100100 :
#273
b1010 4
b000010 5
16
08
b01100100 ;
#274
06
#275
b1011 4
b000001 5
16
b00010100 ;
#276
06
#277
b1100 4
b000000 5
16
b00101000 ;
1=
#278
06
#279
b00001010 1
b1111 3
b000001 5
16
18
09
b00001010 :
0=
#280
06
b00010100 :
#281
b00011110 2
b0000 3
16
19
b00011110 :
#282
06
b00101000 :
#283
b00111100 #
b0001 3
16
b00111100 :
#284
06
09
b01000110 :
#285
b01010000 $
b0010 3
b000010 5
16
b01010000 :
#286
06
b01011010 :
#287
b01100100 %
b0011 3
16
19
b01100100 :
#288
06
08
#289
b1101 4
b000001 5
16
b01000110 ;
#290
06
#291
b1110 4
b000000 5
16
b01011010 ;
1=
#292
06
#293
16
#294
06
18
09
b00001010 :
#295
b00010100 &
b0100 3
b000001 5
16
b00010100 :
0=
#296
06
19
b00011110 :
#297
b00101000 '
b0101 3
16
b00101000 :
#298
06
b00111100 :
#299
b01000110 (
b0110 3
b000010 5
16
09
b01000110 :
#300
06
b01010000 :
#301
b01011010 )
b0111 3
b000011 5
16
b01011010 :
#302
06
19
b01100100 :
#303
b1111 4
b000010 5
16
08
b00001010 ;
#304
06
#305
b0000 4
b000001 5
16
b00011110 ;
#306
06
#307
b0001 4
b000000 5
16
b00111100 ;
1=
#308
06
#309
b00001010 *
b1000 3
b000001 5
16
18
09
b00001010 :
0=
#310
06
b00010100 :
#311
b00011110 +
b1001 3
16
19
b00011110 :
#312
06
b00101000 :
#313
b00111100 ,
b1010 3
16
b00111100 :
#314
06
09
b01000110 :
#315
b01010000 -
b1011 3
b000010 5
16
b01010000 :
#316
06
b01011010 :
#317
b01100100 .
b1100 3
16
19
b01100100 :
#318
06
08
#319
b0010 4
b000001 5
16
b01010000 ;
#320
06
#321
b0011 4
b000000 5
16
b01100100 ;
1=
#322
06
#323
16
#324
06
18
09
b00001010 :
#325
b00010100 /
b1101 3
b000001 5
16
b00010100 :
0=
#326
06
19
b00011110 :
#327
b00101000 0
b1110 3
16
b00101000 :
#328
06
b00111100 :
#329
b01000110 1
b1111 3
b000010 5
16
09
b01000110 :
#330
06
b01010000 :
#331
b01011010 2
b0000 3
b000011 5
16
b01011010 :
#332
06
19
b01100100 :
#333
b0100 4
b000010 5
16
08
b00010100 ;
#334
06
#335
b0101 4
b000001 5
16
b00101000 ;
#336
06
#337
b0110 4
b000000 5
16
b01000110 ;
1=
#338
06
#339
b00001010 #
b0001 3
b000001 5
16
18
09
b00001010 :
0=
#340
06
b00010100 :
#341
b00011110 $
b0010 3
16
19
b00011110 :
#342
06
b00101000 :
#343
b00111100 %
b0011 3
16
b00111100 :
#344
06
09
b01000110 :
#345
b01010000 &
b0100 3
b000010 5
16
b01010000 :
#346
06
b01011010 :
#347
b01100100 '
b0101 3
16
19
b01100100 :
#348
06
08
#349
b0111 4
b000001 5
16
b01011010 ;
#350
06
#351
b1000 4
b000000 5
16
b00001010 ;
1=
#352
06
#353
16
#354
06
18
09
b00001010 :
#355
b00010100 (
b0110 3
b000001 5
16
b00010100 :
0=
#356
06
19
b00011110 :
#357
b00101000 )
b0111 3
16
b00101000 :
#358
06
b00111100 :
#359
b01000110 *
b1000 3
b000010 5
16
09
b01000110 :
#360
06
b01010000 :
#361
b01011010 +
b1001 3
b000011 5
16
b01011010 :
#362
06
19
b01100100 :
#363
b1001 4
b000010 5
16
08
b01011010 ;
#364
06
#365
b1010 4
b000001 5
16
b00111100 ;
#366
06
#367
b1011 4
b000000 5
16
b01010000 ;
1=
#368
06
#369
b00001010 ,
b1010 3
b000001 5
16
18
09
b00001010 :
0=
#370
06
b00010100 :
#371
b00011110 -
b1011 3
16
19
b00011110 :
#372
06
b00101000 :
#373
b00111100 .
b1100 3
16
b00111100 :
#374
06
09
b01000110 :
#375
b01010000 /
b1101 3
b000010 5
16
b01010000 :
#376
06
b01011010 :
#377
b01100100 0
b1110 3
16
19
b01100100 :
#378
06
08
#379
b1100 4
b000001 5
16
b00111100 ;
#380
06
#381
b1101 4
b000000 5
16
b01010000 ;
1=
#382
06
#383
16
#384
06
18
09
b00001010 :
#385
b00010100 1
b1111 3
b000001 5
16
b00010100 :
0=
#386
06
19
b00011110 :
#387
b00101000 2
b0000 3
16
b00101000 :
#388
06
b00111100 :
#389
b01000110 #
b0001 3
b000010 5
16
09
b01000110 :
#390
06
b01010000 :
#391
b01011010 $
b0010 3
b000011 5
16
b01011010 :
#392
06
19
b01100100 :
#393
b1110 4
b000010 5
16
08
b01100100 ;
#394
06
#395
b1111 4
b000001 5
16
b00010100 ;
#396
06
#397
b0000 4
b000000 5
16
b00101000 ;
1=
#398
06
#399
b00001010 %
b0011 3
b000001 5
16
18
09
b00001010 :
0=
#400
06
b00010100 :
#401
b00011110 &
b0100 3
16
19
b00011110 :
#402
06
b00101000 :
#403
b00111100 '
b0101 3
16
b00111100 :
#404
06
09
b01000110 :
#405
b01010000 (
b0110 3
b000010 5
16
b01010000 :
#406
06
b01011010 :
#407
b01100100 )
b0111 3
16
19
b01100100 :
#408
06
08
#409
b0001 4
b000001 5
16
b01000110 ;
#410
06
#411
b0010 4
b000000 5
16
b01011010 ;
1=
#412
06
#413
16
#414
06
18
09
b00001010 :
#415
b00010100 *
b1000 3
b000001 5
16
b00010100 :
0=
#416
06
19
b00011110 :
#417
b00101000 +
b1001 3
16
b00101000 :
#418
06
b00111100 :
#419
b01000110 ,
b1010 3
b000010 5
16
09
b01000110 :
#420
06
b01010000 :
#421
b01011010 -
b1011 3
b000011 5
16
b01011010 :
#422
06
19
b01100100 :
#423
b0011 4
b000010 5
16
08
b00001010 ;
#424
06
#425
b0100 4
b000001 5
16
b00011110 ;
#426
06
#427
b0101 4
b000000 5
16
b00111100 ;
1=
#428
06
#429
b00001010 .
b1100 3
b000001 5
16
18
09
b00001010 :
0=
#430
06
b00010100 :
#431
b00011110 /
b1101 3
16
19
b00011110 :
#432
06
b00101000 :
#433
b00111100 0
b1110 3
16
b00111100 :
#434
06
09
b01000110 :
#435
b01010000 1
b1111 3
b000010 5
16
b01010000 :
#436
06
b01011010 :
#437
b01100100 2
b0000 3
16
19
b01100100 :
#438
06
08
#439
b0110 4
b000001 5
16
b01010000 ;
#440
06
#441
b0111 4
b000000 5
16
b01100100 ;
1=
#442
06
#443
16
#444
06
18
09
b00001010 :
#445
b00010100 #
b0001 3
b000001 5
16
b00010100 :
0=
#446
06
19
b00011110 :
#447
b00101000 $
b0010 3
16
b00101000 :
#448
06
b00111100 :
#449
b01000110 %
b0011 3
b000010 5
16
09
b01000110 :
#450
06
b01010000 :
#451
b01011010 &
b0100 3
b000011 5
16
b01011010 :
#452
06
19
b01100100 :
#453
b1000 4
b000010 5
16
08
b00010100 ;
#454
06
#455
b1001 4
b000001 5
16
b00101000 ;
#456
06
#457
b1010 4
b000000 5
16
b01000110 ;
1=
#458
06
#459
b00001010 '
b0101 3
b000001 5
16
18
09
b00001010 :
0=
#460
06
b00010100 :
#461
b00011110 (
b0110 3
16
19
b00011110 :
#462
06
b00101000 :
#463
b00111100 )
b0111 3
16
b00111100 :
#464
06
09
b01000110 :
#465
b01010000 *
b1000 3
b000010 5
16
b01010000 :
#466
06
b01011010 :
#467
b01100100 +
b1001 3
16
19
b01100100 :
#468
06
08
#469
b1011 4
b000001 5
16
b01011010 ;
#470
06
#471
b1100 4
b000000 5
16
b00001010 ;
1=
#472
06
#473
16
#474
06
18
09
b00001010 :
#475
b00010100 ,
b1010 3
b000001 5
16
b00010100 :
0=
#476
06
19
b00011110 :
#477
b00101000 -
b1011 3
16
b00101000 :
#478
06
b00111100 :
#479
b01000110 .
b1100 3
b000010 5
16
09
b01000110 :
#480
06
b01010000 :
#481
b01011010 /
b1101 3
b000011 5
16
b01011010 :
#482
06
19
b01100100 :
#483
b1101 4
b000010 5
16
08
b01011010 ;
#484
06
#485
b1110 4
b000001 5
16
b00111100 ;
#486
06
#487
b1111 4
b000000 5
16
b01010000 ;
1=
#488
06
#489
b00001010 0
b1110 3
b000001 5
16
18
09
b00001010 :
0=
#490
06
b00010100 :
#491
b00011110 1
b1111 3
16
19
b00011110 :
#492
06
b00101000 :
#493
b00111100 2
b0000 3
16
b00111100 :
#494
06
09
b01000110 :
#495
b01010000 #
b0001 3
b000010 5
16
b01010000 :
#496
06
b01011010 :
#497
b01100100 $
b0010 3
16
19
b01100100 :
#498
06
08
#499
b0000 4
b000001 5
16
b00111100 ;
#500
06
#501
b0001 4
b000000 5
16
b01010000 ;
1=
#502
06
#503
16
#504
06
18
09
b00001010 :
#505
b00010100 %
b0011 3
b000001 5
16
b00010100 :
0=
#506
06
19
b00011110 :
#507
b00101000 &
b0100 3
16
b00101000 :
#508
06
b00111100 :
#509
b01000110 '
b0101 3
b000010 5
16
09
b01000110 :
#510
06
b01010000 :
#511
b01011010 (
b0110 3
b000011 5
16
b01011010 :
#512
06
19
b01100100 :
#513
b0010 4
b000010 5
16
08
b01100100 ;
#514
06
#515
b0011 4
b000001 5
16
b00010100 ;
#516
06
#517
b0100 4
b000000 5
16
b00101000 ;
1=
#518
06
#519
b00001010 )
b0111 3
b000001 5
16
18
09
b00001010 :
0=
#520
06
b00010100 :
#521
b00011110 *
b1000 3
16
19
b00011110 :
#522
06
b00101000 :
#523
b00111100 +
b1001 3
16
b00111100 :
#524
06
09
b01000110 :
#525
b01010000 ,
b1010 3
b000010 5
16
b01010000 :
#526
06
b01011010 :
#527
b01100100 -
b1011 3
16
19
b01100100 :
#528
06
08
#529
b0101 4
b000001 5
16
b01000110 ;
#530
06
#531
b0110 4
b000000 5
16
b01011010 ;
1=
#532
06
#533
16
#534
06
18
09
b00001010 :
#535
b00010100 .
b1100 3
b000001 5
16
b00010100 :
0=
#536
06
19
b00011110 :
#537
b00101000 /
b1101 3
16
b00101000 :
#538
06
b00111100 :
#539
b01000110 0
b1110 3
b000010 5
16
09
b01000110 :
#540
06
b01010000 :
#541
b01011010 1
b1111 3
b000011 5
16
b01011010 :
#542
06
19
b01100100 :
#543
b0111 4
b000010 5
16
08
b00001010 ;
#544
06
#545
b1000 4
b000001 5
16
b00011110 ;
#546
06
#547
b1001 4
b000000 5
16
b00111100 ;
1=
#548
06
#549
b00001010 2
b0000 3
b000001 5
16
18
09
b00001010 :
0=
#550
06
b00010100 :
#551
b00011110 #
b0001 3
16
19
b00011110 :
#552
06
b00101000 :
#553
b00111100 $
b0010 3
16
b00111100 :
#554
06
09
b01000110 :
#555
b01010000 %
b0011 3
b000010 5
16
b01010000 :
#556
06
b01011010 :
#557
b01100100 &
b0100 3
16
19
b01100100 :
#558
06
08
#559
b1010 4
b000001 5
16
b01010000 ;
#560
06
#561
b1011 4
b000000 5
16
b01100100 ;
1=
#562
06
#563
16
#564
06
18
09
b00001010 :
#565
b00010100 '
b0101 3
b000001 5
16
b00010100 :
0=
#566
06
19
b00011110 :
#567
b00101000 (
b0110 3
16
b00101000 :
#568
06
b00111100 :
#569
b01000110 )
b0111 3
b000010 5
16
09
b01000110 :
#570
06
b01010000 :
#571
b01011010 *
b1000 3
b000011 5
16
b01011010 :
#572
06
19
b01100100 :
#573
b1100 4
b000010 5
16
08
b00010100 ;
#574
06
#575
b1101 4
b000001 5
16
b00101000 ;
#576
06
#577
b1110 4
b000000 5
16
b01000110 ;
1=
#578
06
#579
b00001010 +
b1001 3
b000001 5
16
18
09
b00001010 :
0=
#580
06
b00010100 :
#581
b00011110 ,
b1010 3
16
19
b00011110 :
#582
06
b00101000 :
#583
b00111100 -
b1011 3
16
b00111100 :
#584
06
09
b01000110 :
#585
b01010000 .
b1100 3
b000010 5
16
b01010000 :
#586
06
b01011010 :
#587
b01100100 /
b1101 3
16
19
b01100100 :
#588
06
08
#589
b1111 4
b000001 5
16
b01011010 ;
#590
06
#591
b0000 4
b000000 5
16
b00001010 ;
1=
#592
06
#593
16
#594
06
18
09
b00001010 :
#595
b00010100 0
b1110 3
b000001 5
16
b00010100 :
0=
#596
06
19
b00011110 :
#597
b00101000 1
b1111 3
16
b00101000 :
#598
06
b00111100 :
#599
b01000110 2
b0000 3
b000010 5
16
09
b01000110 :
#600
06
b01010000 :
#601
b01011010 #
b0001 3
b000011 5
16
b01011010 :
#602
06
19
b01100100 :
#603
b0001 4
b000010 5
16
08
b01011010 ;
#604
06
#605
b0010 4
b000001 5
16
b00111100 ;
#606
06
#607
b0011 4
b000000 5
16
b01010000 ;
1=
#608
06
#609
b00001010 $
b0010 3
b000001 5
16
18
09
b00001010 :
0=
#610
06
b00010100 :
#611
b00011110 %
b0011 3
16
19
b00011110 :
#612
06
b00101000 :
#613
b00111100 &
b0100 3
16
b00111100 :
#614
06
09
b01000110 :
#615
b01010000 '
b0101 3
b000010 5
16
b01010000 :
#616
06
b01011010 :
#617
b01100100 (
b0110 3
16
19
b01100100 :
#618
06
08
#619
b0100 4
b000001 5
16
b00111100 ;
#620
06
#621
b0101 4
b000000 5
16
b01010000 ;
1=
#622
06
#623
16
#624
06
18
09
b00001010 :
#625
b00010100 )
b0111 3
b000001 5
16
b00010100 :
0=
#626
06
19
b00011110 :
#627
b00101000 *
b1000 3
16
b00101000 :
#628
06
b00111100 :
#629
b01000110 +
b1001 3
b000010 5
16
09
b01000110 :
#630
06
b01010000 :
#631
b01011010 ,
b1010 3
b000011 5
16
b01011010 :
#632
06
19
b01100100 :
#633
b0110 4
b000010 5
16
08
b01100100 ;
#634
06
#635
b0111 4
b000001 5
16
b00010100 ;
#636
06
#637
b1000 4
b000000 5
16
b00101000 ;
1=
#638
06
#639
b00001010 -
b1011 3
b000001 5
16
18
09
b00001010 :
0=
#640
06
b00010100 :
#641
b00011110 .
b1100 3
16
19
b00011110 :
#642
06
b00101000 :
#643
b00111100 /
b1101 3
16
b00111100 :
#644
06
09
b01000110 :
#645
b01010000 0
b1110 3
b000010 5
16
b01010000 :
#646
06
b01011010 :
#647
b01100100 1
b1111 3
16
19
b01100100 :
#648
06
08
#649
b1001 4
b000001 5
16
b01000110 ;
#650
06
#651
b1010 4
b000000 5
16
b01011010 ;
1=
#652
06
#653
16
#654
06
18
09
b00001010 :
#655
b00010100 2
b0000 3
b000001 5
16
b00010100 :
0=
#656
06
19
b00011110 :
#657
b00101000 #
b0001 3
16
b00101000 :
#658
06
b00111100 :
#659
b01000110 $
b0010 3
b000010 5
16
09
b01000110 :
#660
06
b01010000 :
#661
b01011010 %
b0011 3
b000011 5
16
b01011010 :
#662
06
19
b01100100 :
#663
b1011 4
b000010 5
16
08
b00001010 ;
#664
06
#665
b1100 4
b000001 5
16
b00011110 ;
#666
06
#667
b1101 4
b000000 5
16
b00111100 ;
1=
#668
06
#669
b00001010 &
b0100 3
b000001 5
16
18
09
b00001010 :
0=
#670
06
b00010100 :
#671
b00011110 '
b0101 3
16
19
b00011110 :
#672
06
b00101000 :
#673
b00111100 (
b0110 3
16
b00111100 :
#674
06
09
b01000110 :
#675
b01010000 )
b0111 3
b000010 5
16
b01010000 :
#676
06
b01011010 :
#677
b01100100 *
b1000 3
16
19
b01100100 :
#678
06
08
#679
b1110 4
b000001 5
16
b01010000 ;
#680
06
#681
b1111 4
b000000 5
16
b01100100 ;
1=
#682
06
#683
16
#684
06
18
09
b00001010 :
#685
b00010100 +
b1001 3
b000001 5
16
b00010100 :
0=
#686
06
19
b00011110 :
#687
b00101000 ,
b1010 3
16
b00101000 :
#688
06
b00111100 :
#689
b01000110 -
b1011 3
b000010 5
16
09
b01000110 :
#690
06
b01010000 :
#691
b01011010 .
b1100 3
b000011 5
16
b01011010 :
#692
06
19
b01100100 :
#693
b0000 4
b000010 5
16
08
b00010100 ;
#694
06
#695
b0001 4
b000001 5
16
b00101000 ;
#696
06
#697
b0010 4
b000000 5
16
b01000110 ;
1=
#698
06
#699
b00001010 /
b1101 3
b000001 5
16
18
09
b00001010 :
0=
#700
06
b00010100 :
#701
b00011110 0
b1110 3
16
19
b00011110 :
#702
06
b00101000 :
#703
b00111100 1
b1111 3
16
b00111100 :
#704
06
09
b01000110 :
#705
b01010000 2
b0000 3
b000010 5
16
b01010000 :
#706
06
b01011010 :
#707
b01100100 #
b0001 3
16
19
b01100100 :
#708
06
08
#709
b0011 4
b000001 5
16
b01011010 ;
#710
06
#711
b0100 4
b000000 5
16
b00001010 ;
1=
#712
06
#713
16
#714
06
18
09
b00001010 :
#715
b00010100 $
b0010 3
b000001 5
16
b00010100 :
0=
#716
06
19
b00011110 :
#717
b00101000 %
b0011 3
16
b00101000 :
#718
06
b00111100 :
#719
b01000110 &
b0100 3
b000010 5
16
09
b01000110 :
#720
06
b01010000 :
#721
b01011010 '
b0101 3
b000011 5
16
b01011010 :
#722
06
19
b01100100 :
#723
b0101 4
b000010 5
16
08
b01011010 ;
#724
06
#725
b0110 4
b000001 5
16
b00111100 ;
#726
06
#727
b0111 4
b000000 5
16
b01010000 ;
1=
#728
06
#729
b00001010 (
b0110 3
b000001 5
16
18
09
b00001010 :
0=
#730
06
b00010100 :
#731
b00011110 )
b0111 3
16
19
b00011110 :
#732
06
b00101000 :
#733
b00111100 *
b1000 3
16
b00111100 :
#734
06
09
b01000110 :
#735
b01010000 +
b1001 3
b000010 5
16
b01010000 :
#736
06
b01011010 :
#737
b01100100 ,
b1010 3
16
19
b01100100 :
#738
06
08
#739
b1000 4
b000001 5
16
b00111100 ;
#740
06
#741
b1001 4
b000000 5
16
b01010000 ;
1=
#742
06
#743
16
#744
06
18
09
b00001010 :
#745
b00010100 -
b1011 3
b000001 5
16
b00010100 :
0=
#746
06
19
b00011110 :
#747
b00101000 .
b1100 3
16
b00101000 :
#748
06
b00111100 :
